<?xml version="1.0" encoding="UTF-8" standalone="no"?>
<graphml xmlns="http://graphml.graphdrawing.org/xmlns" xmlns:xsi="http://www.w3.org/2001/XMLSchema-instance" xmlns:y="http://www.yworks.com/xml/graphml" xsi:schemaLocation="http://graphml.graphdrawing.org/xmlns http://www.yworks.com/xml/schema/graphml/1.1/ygraphml.xsd">
  <!--Created by yFiles for Java 2.10-->
  <key for="graphml" id="d0" yfiles.type="resources"/>
  <key for="port" id="d1" yfiles.type="portgraphics"/>
  <key for="port" id="d2" yfiles.type="portgeometry"/>
  <key for="port" id="d3" yfiles.type="portuserdata"/>
  <key for="node" id="d4" yfiles.type="nodegraphics"/>
  <key for="edge" id="d5" yfiles.type="edgegraphics"/>
  <graph edgedefault="directed" id="G">
    <node id="n0" yfiles.foldertype="group">
      <data key="d4">
        <y:TableNode configuration="GRID_CONFIGURATION">
          <y:Geometry height="480.0" width="630.0" x="-30.0" y="-30.0"/>
          <y:Fill color="#8BA2DC" color2="#0042F440" transparent="false"/>
          <y:BorderStyle color="#000000" type="line" width="1.0"/>
          <y:NodeLabel alignment="center" autoSizePolicy="content" fontFamily="Dialog" fontSize="12" fontStyle="plain" hasBackgroundColor="false" hasLineColor="false" hasText="false" height="4.0" modelName="internal" modelPosition="c" textColor="#000000" visible="true" width="4.0" x="313.0" y="238.0"/>
          <y:UserData>
            <demo:CellColors xmlns:demo="demo">
              <demo:CellColor color="#FF6600" column="0" row="0"/>
              <demo:CellColor color="#0089CD" column="0" row="1"/>
              <demo:CellColor color="#009939" column="1" row="0"/>
              <demo:CellColor color="#0089CD" column="1" row="1"/>
              <demo:CellColor color="#FBB007" column="2" row="0"/>
              <demo:CellColor color="#0089CD" column="2" row="1"/>
            </demo:CellColors>
          </y:UserData>
          <y:State autoResize="true" closed="false" closedHeight="80.0" closedWidth="100.0"/>
          <y:Insets bottom="0" bottomF="0.0" left="0" leftF="0.0" right="0" rightF="0.0" top="0" topF="0.0"/>
          <y:BorderInsets bottom="53" bottomF="52.91666666666674" left="43" leftF="42.875" right="69" rightF="68.6875" top="14" topF="14.479166666666657"/>
          <y:Table autoResizeTable="true" defaultColumnWidth="200.0" defaultMinimumColumnWidth="30.0" defaultMinimumRowHeight="30.0" defaultRowHeight="150.0">
            <y:DefaultColumnInsets bottom="15.0" left="15.0" right="15.0" top="15.0"/>
            <y:DefaultRowInsets bottom="15.0" left="15.0" right="15.0" top="15.0"/>
            <y:Insets bottom="0.0" left="0.0" right="0.0" top="0.0"/>
            <y:Columns>
              <y:Column id="column_0" minimumWidth="30.0" width="200.0">
                <y:Insets bottom="15.0" left="15.0" right="15.0" top="15.0"/>
              </y:Column>
              <y:Column id="column_1" minimumWidth="30.0" width="200.0">
                <y:Insets bottom="15.0" left="15.0" right="15.0" top="15.0"/>
              </y:Column>
              <y:Column id="column_2" minimumWidth="30.0" width="200.0">
                <y:Insets bottom="15.0" left="15.0" right="15.0" top="15.0"/>
              </y:Column>
            </y:Columns>
            <y:Rows>
              <y:Row height="300.0" id="row_0" minimumHeight="30.0">
                <y:Insets bottom="15.0" left="15.0" right="15.0" top="15.0"/>
              </y:Row>
              <y:Row height="150.0" id="row_1" minimumHeight="30.0">
                <y:Insets bottom="15.0" left="15.0" right="15.0" top="15.0"/>
              </y:Row>
            </y:Rows>
          </y:Table>
        </y:TableNode>
      </data>
      <graph edgedefault="directed" id="n0:">
        <node id="n0::n0">
          <data key="d4">
            <y:GenericNode configuration="DemoDefaults#Node">
              <y:Geometry height="30.0" width="60.0" x="27.875" y="156.16666666666663"/>
              <y:Fill color="#FF9900" transparent="false"/>
              <y:BorderStyle hasColor="false" type="line" width="1.0"/>
              <y:NodeLabel alignment="center" autoSizePolicy="content" fontFamily="Dialog" fontSize="12" fontStyle="plain" hasBackgroundColor="false" hasLineColor="false" height="17.96875" modelName="custom" textColor="#000000" visible="true" width="24.0" x="18.0" y="6.015625">1.1<y:LabelModel>
                  <y:SmartNodeLabelModel distance="4.0"/>
                </y:LabelModel>
                <y:ModelParameter>
                  <y:SmartNodeLabelModelParameter labelRatioX="0.0" labelRatioY="0.0" nodeRatioX="0.0" nodeRatioY="0.0" offsetX="0.0" offsetY="0.0" upX="0.0" upY="-1.0"/>
                </y:ModelParameter>
              </y:NodeLabel>
            </y:GenericNode>
          </data>
        </node>
        <node id="n0::n1">
          <data key="d4">
            <y:GenericNode configuration="DemoDefaults#Node">
              <y:Geometry height="30.0" width="60.0" x="45.89583333333333" y="56.291666666666686"/>
              <y:Fill color="#FF9900" transparent="false"/>
              <y:BorderStyle hasColor="false" type="line" width="1.0"/>
              <y:NodeLabel alignment="center" autoSizePolicy="content" fontFamily="Dialog" fontSize="12" fontStyle="plain" hasBackgroundColor="false" hasLineColor="false" height="17.96875" modelName="custom" textColor="#000000" visible="true" width="24.0" x="18.0" y="6.015625">1.1<y:LabelModel>
                  <y:SmartNodeLabelModel distance="4.0"/>
                </y:LabelModel>
                <y:ModelParameter>
                  <y:SmartNodeLabelModelParameter labelRatioX="0.0" labelRatioY="0.0" nodeRatioX="0.0" nodeRatioY="0.0" offsetX="0.0" offsetY="0.0" upX="0.0" upY="-1.0"/>
                </y:ModelParameter>
              </y:NodeLabel>
            </y:GenericNode>
          </data>
        </node>
        <node id="n0::n2">
          <data key="d4">
            <y:GenericNode configuration="DemoDefaults#Node">
              <y:Geometry height="30.0" width="60.0" x="290.2083333333333" y="166.04166666666666"/>
              <y:Fill color="#FF9900" transparent="false"/>
              <y:BorderStyle hasColor="false" type="line" width="1.0"/>
              <y:NodeLabel alignment="center" autoSizePolicy="content" fontFamily="Dialog" fontSize="12" fontStyle="plain" hasBackgroundColor="false" hasLineColor="false" height="17.96875" modelName="custom" textColor="#000000" visible="true" width="24.0" x="18.0" y="6.015625">1.2<y:LabelModel>
                  <y:SmartNodeLabelModel distance="4.0"/>
                </y:LabelModel>
                <y:ModelParameter>
                  <y:SmartNodeLabelModelParameter labelRatioX="0.0" labelRatioY="0.0" nodeRatioX="0.0" nodeRatioY="0.0" offsetX="0.0" offsetY="0.0" upX="0.0" upY="-1.0"/>
                </y:ModelParameter>
              </y:NodeLabel>
            </y:GenericNode>
          </data>
        </node>
        <node id="n0::n3">
          <data key="d4">
            <y:GenericNode configuration="DemoDefaults#Node">
              <y:Geometry height="30.0" width="60.0" x="202.41666666666669" y="166.00000000000003"/>
              <y:Fill color="#FF9900" transparent="false"/>
              <y:BorderStyle hasColor="false" type="line" width="1.0"/>
              <y:NodeLabel alignment="center" autoSizePolicy="content" fontFamily="Dialog" fontSize="12" fontStyle="plain" hasBackgroundColor="false" hasLineColor="false" height="17.96875" modelName="custom" textColor="#000000" visible="true" width="24.0" x="18.0" y="6.015625">1.2<y:LabelModel>
                  <y:SmartNodeLabelModel distance="4.0"/>
                </y:LabelModel>
                <y:ModelParameter>
                  <y:SmartNodeLabelModelParameter labelRatioX="0.0" labelRatioY="0.0" nodeRatioX="0.0" nodeRatioY="0.0" offsetX="0.0" offsetY="0.0" upX="0.0" upY="-1.0"/>
                </y:ModelParameter>
              </y:NodeLabel>
            </y:GenericNode>
          </data>
        </node>
        <node id="n0::n4">
          <data key="d4">
            <y:GenericNode configuration="DemoDefaults#Node">
              <y:Geometry height="30.0" width="60.0" x="310.9791666666667" y="235.33333333333334"/>
              <y:Fill color="#FF9900" transparent="false"/>
              <y:BorderStyle hasColor="false" type="line" width="1.0"/>
              <y:NodeLabel alignment="center" autoSizePolicy="content" fontFamily="Dialog" fontSize="12" fontStyle="plain" hasBackgroundColor="false" hasLineColor="false" height="17.96875" modelName="custom" textColor="#000000" visible="true" width="24.0" x="18.0" y="6.015625">1.2<y:LabelModel>
                  <y:SmartNodeLabelModel distance="4.0"/>
                </y:LabelModel>
                <y:ModelParameter>
                  <y:SmartNodeLabelModelParameter labelRatioX="0.0" labelRatioY="0.0" nodeRatioX="0.0" nodeRatioY="0.0" offsetX="0.0" offsetY="0.0" upX="0.0" upY="-1.0"/>
                </y:ModelParameter>
              </y:NodeLabel>
            </y:GenericNode>
          </data>
        </node>
        <node id="n0::n5">
          <data key="d4">
            <y:GenericNode configuration="DemoDefaults#Node">
              <y:Geometry height="30.0" width="60.0" x="302.14583333333337" y="57.35416666666664"/>
              <y:Fill color="#FF9900" transparent="false"/>
              <y:BorderStyle hasColor="false" type="line" width="1.0"/>
              <y:NodeLabel alignment="center" autoSizePolicy="content" fontFamily="Dialog" fontSize="12" fontStyle="plain" hasBackgroundColor="false" hasLineColor="false" height="17.96875" modelName="custom" textColor="#000000" visible="true" width="24.0" x="18.0" y="6.015625">1.2<y:LabelModel>
                  <y:SmartNodeLabelModel distance="4.0"/>
                </y:LabelModel>
                <y:ModelParameter>
                  <y:SmartNodeLabelModelParameter labelRatioX="0.0" labelRatioY="0.0" nodeRatioX="0.0" nodeRatioY="0.0" offsetX="0.0" offsetY="0.0" upX="0.0" upY="-1.0"/>
                </y:ModelParameter>
              </y:NodeLabel>
            </y:GenericNode>
          </data>
        </node>
        <node id="n0::n6">
          <data key="d4">
            <y:GenericNode configuration="DemoDefaults#Node">
              <y:Geometry height="30.0" width="60.0" x="454.3333333333333" y="204.27083333333334"/>
              <y:Fill color="#FF9900" transparent="false"/>
              <y:BorderStyle hasColor="false" type="line" width="1.0"/>
              <y:NodeLabel alignment="center" autoSizePolicy="content" fontFamily="Dialog" fontSize="12" fontStyle="plain" hasBackgroundColor="false" hasLineColor="false" height="17.96875" modelName="custom" textColor="#000000" visible="true" width="24.0" x="18.0" y="6.015625">1.3<y:LabelModel>
                  <y:SmartNodeLabelModel distance="4.0"/>
                </y:LabelModel>
                <y:ModelParameter>
                  <y:SmartNodeLabelModelParameter labelRatioX="0.0" labelRatioY="0.0" nodeRatioX="0.0" nodeRatioY="0.0" offsetX="0.0" offsetY="0.0" upX="0.0" upY="-1.0"/>
                </y:ModelParameter>
              </y:NodeLabel>
            </y:GenericNode>
          </data>
        </node>
        <node id="n0::n7">
          <data key="d4">
            <y:GenericNode configuration="DemoDefaults#Node">
              <y:Geometry height="30.0" width="60.0" x="456.31250000000006" y="96.60416666666666"/>
              <y:Fill color="#FF9900" transparent="false"/>
              <y:BorderStyle hasColor="false" type="line" width="1.0"/>
              <y:NodeLabel alignment="center" autoSizePolicy="content" fontFamily="Dialog" fontSize="12" fontStyle="plain" hasBackgroundColor="false" hasLineColor="false" height="17.96875" modelName="custom" textColor="#000000" visible="true" width="24.0" x="18.0" y="6.015625">1.3<y:LabelModel>
                  <y:SmartNodeLabelModel distance="4.0"/>
                </y:LabelModel>
                <y:ModelParameter>
                  <y:SmartNodeLabelModelParameter labelRatioX="0.0" labelRatioY="0.0" nodeRatioX="0.0" nodeRatioY="0.0" offsetX="0.0" offsetY="0.0" upX="0.0" upY="-1.0"/>
                </y:ModelParameter>
              </y:NodeLabel>
            </y:GenericNode>
          </data>
        </node>
        <node id="n0::n8">
          <data key="d4">
            <y:GenericNode configuration="DemoDefaults#Node">
              <y:Geometry height="30.0" width="60.0" x="449.58333333333337" y="-0.5208333333333428"/>
              <y:Fill color="#FF9900" transparent="false"/>
              <y:BorderStyle hasColor="false" type="line" width="1.0"/>
              <y:NodeLabel alignment="center" autoSizePolicy="content" fontFamily="Dialog" fontSize="12" fontStyle="plain" hasBackgroundColor="false" hasLineColor="false" height="17.96875" modelName="custom" textColor="#000000" visible="true" width="24.0" x="18.0" y="6.015625">1.3<y:LabelModel>
                  <y:SmartNodeLabelModel distance="4.0"/>
                </y:LabelModel>
                <y:ModelParameter>
                  <y:SmartNodeLabelModelParameter labelRatioX="0.0" labelRatioY="0.0" nodeRatioX="0.0" nodeRatioY="0.0" offsetX="0.0" offsetY="0.0" upX="0.0" upY="-1.0"/>
                </y:ModelParameter>
              </y:NodeLabel>
            </y:GenericNode>
          </data>
        </node>
        <node id="n0::n9">
          <data key="d4">
            <y:GenericNode configuration="DemoDefaults#Node">
              <y:Geometry height="30.0" width="60.0" x="453.31250000000006" y="334.0416666666667"/>
              <y:Fill color="#FF9900" transparent="false"/>
              <y:BorderStyle hasColor="false" type="line" width="1.0"/>
              <y:NodeLabel alignment="center" autoSizePolicy="content" fontFamily="Dialog" fontSize="12" fontStyle="plain" hasBackgroundColor="false" hasLineColor="false" height="17.96875" modelName="custom" textColor="#000000" visible="true" width="12.0" x="24.0" y="6.015625">2<y:LabelModel>
                  <y:SmartNodeLabelModel distance="4.0"/>
                </y:LabelModel>
                <y:ModelParameter>
                  <y:SmartNodeLabelModelParameter labelRatioX="0.0" labelRatioY="0.0" nodeRatioX="0.0" nodeRatioY="0.0" offsetX="0.0" offsetY="0.0" upX="0.0" upY="-1.0"/>
                </y:ModelParameter>
              </y:NodeLabel>
            </y:GenericNode>
          </data>
        </node>
        <node id="n0::n10">
          <data key="d4">
            <y:GenericNode configuration="DemoDefaults#Node">
              <y:Geometry height="30.0" width="60.0" x="69.72916666666666" y="339.3333333333333"/>
              <y:Fill color="#FF9900" transparent="false"/>
              <y:BorderStyle hasColor="false" type="line" width="1.0"/>
              <y:NodeLabel alignment="center" autoSizePolicy="content" fontFamily="Dialog" fontSize="12" fontStyle="plain" hasBackgroundColor="false" hasLineColor="false" height="17.96875" modelName="custom" textColor="#000000" visible="true" width="12.0" x="24.0" y="6.015625">2<y:LabelModel>
                  <y:SmartNodeLabelModel distance="4.0"/>
                </y:LabelModel>
                <y:ModelParameter>
                  <y:SmartNodeLabelModelParameter labelRatioX="0.0" labelRatioY="0.0" nodeRatioX="0.0" nodeRatioY="0.0" offsetX="0.0" offsetY="0.0" upX="0.0" upY="-1.0"/>
                </y:ModelParameter>
              </y:NodeLabel>
            </y:GenericNode>
          </data>
        </node>
        <node id="n0::n11">
          <data key="d4">
            <y:GenericNode configuration="DemoDefaults#Node">
              <y:Geometry height="30.0" width="60.0" x="309.9375" y="351.7708333333333"/>
              <y:Fill color="#FF9900" transparent="false"/>
              <y:BorderStyle hasColor="false" type="line" width="1.0"/>
              <y:NodeLabel alignment="center" autoSizePolicy="content" fontFamily="Dialog" fontSize="12" fontStyle="plain" hasBackgroundColor="false" hasLineColor="false" height="17.96875" modelName="custom" textColor="#000000" visible="true" width="12.0" x="24.0" y="6.015625">2<y:LabelModel>
                  <y:SmartNodeLabelModel distance="4.0"/>
                </y:LabelModel>
                <y:ModelParameter>
                  <y:SmartNodeLabelModelParameter labelRatioX="0.0" labelRatioY="0.0" nodeRatioX="0.0" nodeRatioY="0.0" offsetX="0.0" offsetY="0.0" upX="0.0" upY="-1.0"/>
                </y:ModelParameter>
              </y:NodeLabel>
            </y:GenericNode>
          </data>
        </node>
        <node id="n0::n12">
          <data key="d4">
            <y:GenericNode configuration="DemoDefaults#Node">
              <y:Geometry height="30.0" width="60.0" x="209.75" y="352.0833333333333"/>
              <y:Fill color="#FF9900" transparent="false"/>
              <y:BorderStyle hasColor="false" type="line" width="1.0"/>
              <y:NodeLabel alignment="center" autoSizePolicy="content" fontFamily="Dialog" fontSize="12" fontStyle="plain" hasBackgroundColor="false" hasLineColor="false" height="17.96875" modelName="custom" textColor="#000000" visible="true" width="12.0" x="24.0" y="6.015625">2<y:LabelModel>
                  <y:SmartNodeLabelModel distance="4.0"/>
                </y:LabelModel>
                <y:ModelParameter>
                  <y:SmartNodeLabelModelParameter labelRatioX="0.0" labelRatioY="0.0" nodeRatioX="0.0" nodeRatioY="0.0" offsetX="0.0" offsetY="0.0" upX="0.0" upY="-1.0"/>
                </y:ModelParameter>
              </y:NodeLabel>
            </y:GenericNode>
          </data>
        </node>
      </graph>
    </node>
    <edge id="n0::e0" source="n0::n1" target="n0::n0">
      <data key="d5">
        <y:PolyLineEdge>
          <y:Path sx="0.0" sy="0.0" tx="0.0" ty="0.0"/>
          <y:LineStyle color="#000000" type="line" width="1.0"/>
          <y:Arrows source="none" target="standard"/>
          <y:BendStyle smoothed="false"/>
        </y:PolyLineEdge>
      </data>
    </edge>
    <edge id="n0::e1" source="n0::n5" target="n0::n2">
      <data key="d5">
        <y:PolyLineEdge>
          <y:Path sx="0.0" sy="0.0" tx="0.0" ty="0.0"/>
          <y:LineStyle color="#000000" type="line" width="1.0"/>
          <y:Arrows source="none" target="standard"/>
          <y:BendStyle smoothed="false"/>
        </y:PolyLineEdge>
      </data>
    </edge>
    <edge id="n0::e2" source="n0::n1" target="n0::n3">
      <data key="d5">
        <y:PolyLineEdge>
          <y:Path sx="0.0" sy="0.0" tx="0.0" ty="0.0"/>
          <y:LineStyle color="#000000" type="line" width="1.0"/>
          <y:Arrows source="none" target="standard"/>
          <y:BendStyle smoothed="false"/>
        </y:PolyLineEdge>
      </data>
    </edge>
    <edge id="n0::e3" source="n0::n2" target="n0::n12">
      <data key="d5">
        <y:PolyLineEdge>
          <y:Path sx="0.0" sy="0.0" tx="0.0" ty="0.0"/>
          <y:LineStyle color="#000000" type="line" width="1.0"/>
          <y:Arrows source="none" target="standard"/>
          <y:BendStyle smoothed="false"/>
        </y:PolyLineEdge>
      </data>
    </edge>
    <edge id="n0::e4" source="n0::n4" target="n0::n11">
      <data key="d5">
        <y:PolyLineEdge>
          <y:Path sx="0.0" sy="0.0" tx="0.0" ty="0.0"/>
          <y:LineStyle color="#000000" type="line" width="1.0"/>
          <y:Arrows source="none" target="standard"/>
          <y:BendStyle smoothed="false"/>
        </y:PolyLineEdge>
      </data>
    </edge>
    <edge id="n0::e5" source="n0::n8" target="n0::n5">
      <data key="d5">
        <y:PolyLineEdge>
          <y:Path sx="0.0" sy="0.0" tx="0.0" ty="0.0"/>
          <y:LineStyle color="#000000" type="line" width="1.0"/>
          <y:Arrows source="none" target="standard"/>
          <y:BendStyle smoothed="false"/>
        </y:PolyLineEdge>
      </data>
    </edge>
    <edge id="n0::e6" source="n0::n7" target="n0::n4">
      <data key="d5">
        <y:PolyLineEdge>
          <y:Path sx="0.0" sy="0.0" tx="0.0" ty="0.0"/>
          <y:LineStyle color="#000000" type="line" width="1.0"/>
          <y:Arrows source="none" target="standard"/>
          <y:BendStyle smoothed="false"/>
        </y:PolyLineEdge>
      </data>
    </edge>
    <edge id="n0::e7" source="n0::n0" target="n0::n10">
      <data key="d5">
        <y:PolyLineEdge>
          <y:Path sx="0.0" sy="0.0" tx="0.0" ty="0.0"/>
          <y:LineStyle color="#000000" type="line" width="1.0"/>
          <y:Arrows source="none" target="standard"/>
          <y:BendStyle smoothed="false"/>
        </y:PolyLineEdge>
      </data>
    </edge>
    <edge id="n0::e8" source="n0::n6" target="n0::n9">
      <data key="d5">
        <y:PolyLineEdge>
          <y:Path sx="0.0" sy="0.0" tx="0.0" ty="0.0"/>
          <y:LineStyle color="#000000" type="line" width="1.0"/>
          <y:Arrows source="none" target="standard"/>
          <y:BendStyle smoothed="false"/>
        </y:PolyLineEdge>
      </data>
    </edge>
    <edge id="n0::e9" source="n0::n11" target="n0::n9">
      <data key="d5">
        <y:PolyLineEdge>
          <y:Path sx="0.0" sy="0.0" tx="0.0" ty="0.0"/>
          <y:LineStyle color="#000000" type="line" width="1.0"/>
          <y:Arrows source="none" target="standard"/>
          <y:BendStyle smoothed="false"/>
        </y:PolyLineEdge>
      </data>
    </edge>
    <edge id="n0::e10" source="n0::n12" target="n0::n10">
      <data key="d5">
        <y:PolyLineEdge>
          <y:Path sx="0.0" sy="0.0" tx="0.0" ty="0.0"/>
          <y:LineStyle color="#000000" type="line" width="1.0"/>
          <y:Arrows source="none" target="standard"/>
          <y:BendStyle smoothed="false"/>
        </y:PolyLineEdge>
      </data>
    </edge>
    <edge id="n0::e11" source="n0::n8" target="n0::n1">
      <data key="d5">
        <y:PolyLineEdge>
          <y:Path sx="0.0" sy="0.0" tx="0.0" ty="0.0"/>
          <y:LineStyle color="#000000" type="line" width="1.0"/>
          <y:Arrows source="none" target="standard"/>
          <y:BendStyle smoothed="false"/>
        </y:PolyLineEdge>
      </data>
    </edge>
  </graph>
  <data key="d0">
    <y:Resources/>
  </data>
</graphml>
